module moolekkari.net/joice/zorodha

go 1.13

require (
	github.com/gin-contrib/static v0.0.0-20190913125243-df30d4057ba1
	github.com/gin-gonic/gin v1.5.0
	github.com/kr/pretty v0.1.0 // indirect
	github.com/sirupsen/logrus v1.4.2
	gopkg.in/check.v1 v1.0.0-20180628173108-788fd7840127 // indirect
	launchpad.net/rjson v0.0.0-20130128103752-000000000013
)
